<?xml version="1.0" standalone="no"?>
<!DOCTYPE svg PUBLIC "-//W3C//DTD SVG 1.1//EN" "http://www.w3.org/Graphics/SVG/1.1/DTD/svg11.dtd" >
<svg xmlns="http://www.w3.org/2000/svg">
<metadata>Generated by IcoMoon</metadata>
<defs>
<font id="blk" horiz-adv-x="1024">
<font-face units-per-em="1024" ascent="896" descent="-128" />
<missing-glyph horiz-adv-x="1024" />
<glyph unicode="&#x20;" horiz-adv-x="400" d="" />
<glyph unicode="&#xf100;" glyph-name="uniF100" d="M853.376 611.67c94.463 0 170.625-76.416 170.625-170.748 0-94.592-76.162-170.75-170.625-170.75h-511.998c-62.676 0-113.834 51.156-113.834 113.832 0 62.678 51.156 113.834 113.834 113.834h455.082v-56.918h-455.082c-31.318 0-56.918-25.727-56.918-56.918 0-31.189 25.6-56.916 56.918-56.916h511.998c62.549 0 113.707 51.154 113.707 113.832 0 62.422-51.158 113.834-113.707 113.834h-625.834c-94.465 0-170.625-76.416-170.625-170.752 0-94.334 76.162-170.75 170.625-170.75h568.916v-56.918h-568.916c-125.652 0-227.542 101.889-227.542 227.668 0 125.781 101.889 227.67 227.542 227.67h625.834z" />
<glyph unicode="&#xf101;" glyph-name="uniF101" d="M689.548 733.182l323.624-323.654c14.438-13.918 14.438-37.137 0-51.086l-323.624-323.624c-13.916-14.438-37.168-14.438-51.605 0-13.951 13.918-13.951 37.168 0 51.607l261.674 261.186h-863.49c-20.129 0-36.127 16.52-36.127 36.648s15.998 36.129 36.127 36.16h863.49l-261.674 261.676c-13.951 13.918-13.951 37.135 0 51.086 14.438 14.438 37.656 14.438 51.605 0z" />
<glyph unicode="&#xf102;" glyph-name="uniF102" d="M900.056 257.086c-6.041-16.445-12.754-28.863-46.852-28.863h-452.378l4.129-21.982c29.803-1.174 59.27-11.578 80.85-45.141h297.322c17.184 25.172 54.17 41.953 85.348 41.953 74.977 0 112.734-55.074 112.734-117.197 0-62.459-50.846-116.627-113.371-116.627-68.6 0-105.082 57.625-112.398 91.188h-241.98c-7.316-33.562-52.355-89.846-112.43-89.846-63.635 0-113.439 57.66-113.439 120.219 0 28.426 10.74 58.9 30.475 79.809l-124.246 527.488h-162.338c-20.674 0-31.48 4.699-31.48 22.723v50.006c0 18.627 10.84 27.957 30.775 27.957h192.275c29.367 0 43.932-19.498 48.865-39.938l18.258-86.623 684.154-0.135c5.002 0 30.811-0.168 43.361-17.854 4.9-6.914 9.498-17.387 3.424-34.805zM868.676 129.854c-23.525 0-42.623-19.096-42.656-42.623 0-23.561 19.131-42.623 42.656-42.623 23.527 0 42.625 19.098 42.625 42.623 0 23.527-19.098 42.623-42.625 42.623zM443.182 87.23c0 23.795-19.332 43.16-43.059 43.16-23.797 0-43.162-19.365-43.162-43.16s19.365-43.092 43.162-43.16c23.727 0 43.059 19.365 43.059 43.16z" />
<glyph unicode="&#xf103;" glyph-name="uniF103" d="M0 896h1024v-1024h-1024v1024zM870.4 349.868v68.266h-324.268v324.268h-68.266v-324.268h-324.268v-68.266h324.268v-324.268h68.266v324.268h324.268z" />
<glyph unicode="&#xf104;" glyph-name="uniF104" d="M877.33 365.338c12.451-12.451 18.676-27.555 18.666-45.334v-384.002c0-17.787-6.232-32.898-18.666-45.34-12.434-12.434-27.553-18.66-45.34-18.66h-639.988c-17.771 0-32.887 6.227-45.332 18.66-12.443 12.441-18.666 27.553-18.666 45.34v384.004c0 17.779 6.221 32.898 18.666 45.334 12.445 12.434 27.561 18.662 45.332 18.662h21.332v213.33c0 82.23 29.221 152.559 87.662 211 58.451 58.449 128.783 87.668 211.010 87.668 82.219 0 152.559-29.219 211.006-87.67 58.436-58.449 87.66-128.77 87.66-211 0-11.553-4.236-21.551-12.656-29.994-8.455-8.445-18.455-12.67-30.002-12.67h-42.686c-11.541 0-21.545 4.225-30 12.67-8.436 8.443-12.654 18.441-12.654 29.994 0 47.117-16.672 87.336-50.008 120.67-33.324 33.332-73.551 49.996-120.66 49.996-47.115 0-87.334-16.666-120.672-49.996-33.334-33.334-50.004-73.551-50.004-120.67v-213.332h490.66c17.787 0 32.893-6.213 45.34-18.66z" />
<glyph unicode="&#xf105;" glyph-name="uniF105" d="M775.414 360.826l-243.896-244.314c-10.9-10.533-28.43-10.533-38.961 0l-244.314 244.314c-10.9 10.898-10.9 28.059 0 38.959 10.508 10.9 28.061 10.9 38.959 0l197.156-197.18v651.514c0 15.195 12.471 27.666 27.668 27.666 15.195 0 27.273-12.471 27.273-27.666v-651.514l197.549 197.18c10.506 10.9 28.035 10.9 38.566 0 10.9-10.9 10.9-28.061 0-38.959zM969.058 181.959c0 15.197 12.078 27.275 27.273 27.275 15.197 0 27.668-12.078 27.668-27.275v-268.078c0-15.195-12.471-27.666-27.668-27.666h-969.058c-15.195 0-27.273 12.471-27.273 27.666v268.078c0 15.197 12.078 27.275 27.273 27.275 15.197 0 27.668-12.078 27.668-27.275v-240.802h914.118v240.802z" />
<glyph unicode="&#xf106;" glyph-name="uniF106" d="M163.121 696.192c0 108.023 87.881 195.906 195.902 195.906 108.027 0 195.906-87.883 195.906-195.906 0-108.021-87.879-195.898-195.906-195.898-108.021 0-195.902 87.877-195.902 195.898zM678.694 76.934l-93.658 93.656c-8.785 8.781-13.719 20.691-13.719 33.115 0 12.418 4.934 24.328 13.715 33.113l93.658 93.666c18.289 18.285 47.941 18.287 66.23 0.002 18.287-18.287 18.287-47.939 0.002-66.229l-60.549-60.553 60.543-60.539c18.289-18.287 18.289-47.939 0.004-66.229-9.145-9.145-21.129-13.719-33.115-13.719-11.982 0-23.967 4.574-33.111 13.715zM46.83 0.781c-25.863 0-46.83 20.967-46.83 46.828 0 197.967 161.059 359.026 359.024 359.026 25.002 0 49.762-2.629 74-7.711 59.793 80.402 155.502 132.588 263.172 132.588 180.748 0 327.804-147.057 327.804-327.804 0-180.752-147.057-327.804-327.804-327.804-104.189 0-197.176 48.865-257.262 124.879h-392.104zM696.196 437.854c-129.111 0-234.146-105.037-234.146-234.146 0-129.107 105.037-234.146 234.146-234.146 129.107 0 234.146 105.039 234.146 234.146 0 129.109-105.039 234.146-234.146 234.146z" />
<glyph unicode="&#xf107;" glyph-name="uniF107" d="M988.796 329.596c6.414-18.779 9.605-34.988 9.553-48.656 1.289-32.428-7.887-61.652-27.51-87.68 7.242-23.891 7.242-48.852 0-74.863-6.391-24.326-17.92-44.371-34.557-60.156 3.826-47.787-6.621-86.4-31.359-115.844-27.316-32.42-69.324-49.064-126.084-49.918h-82.561c-28.152 0-58.867 3.316-92.154 9.926-33.254 6.623-59.191 12.814-77.748 18.566-18.561 5.752-44.262 14.191-77.111 25.268-52.482 18.363-86.189 27.74-101.121 28.168-11.094 0.428-20.693 4.586-28.797 12.488-8.109 7.893-12.16 17.381-12.16 28.475v410.238c0 10.662 3.84 19.945 11.523 27.838 7.682 7.896 16.855 12.27 27.516 13.123 10.236 0.854 26.449 13.438 48.639 37.764 22.184 24.322 43.729 50.133 64.641 77.436 29.020 37.117 50.564 62.719 64.641 76.797 7.684 7.684 14.289 17.916 19.842 30.723 5.541 12.797 9.285 23.143 11.201 31.035 1.932 7.893 4.799 20.791 8.652 38.719 2.975 16.637 5.645 29.652 7.992 39.039 2.348 9.391 6.512 20.484 12.486 33.285 5.969 12.795 13.232 23.461 21.766 31.992 8.113 8.107 17.705 12.164 28.797 12.164 19.639 0 37.229-2.24 52.816-6.721 15.572-4.477 28.369-10.023 38.402-16.635 10.035-6.617 18.564-15.246 25.607-25.926 7.027-10.658 12.152-20.266 15.357-28.797 3.191-8.529 5.756-19.197 7.689-31.992 1.902-12.803 2.99-22.406 3.189-28.805 0.201-6.396 0.324-14.723 0.324-24.959 0-16.213-2.018-32.434-6.076-48.639-4.066-16.213-8.1-29.008-12.15-38.404-4.057-9.379-9.934-21.334-17.611-35.832-1.275-2.557-3.416-6.398-6.395-11.52-2.975-5.121-5.346-9.818-7.033-14.086-1.703-4.266-3.412-9.385-5.115-15.355h177.271c33.279 0 62.074-12.16 86.393-36.49 24.271-24.332 36.447-53.129 36.447-86.406 0-36.699-11.736-68.482-35.203-95.359zM225.282 465.916c11.094 0 20.691-4.053 28.799-12.164 8.104-8.105 12.158-17.703 12.158-28.797v-409.616c0-11.080-4.053-20.684-12.158-28.799-8.109-8.094-17.707-12.15-28.799-12.15h-184.311c-11.094 0-20.695 4.057-28.809 12.15-8.107 8.115-12.162 17.721-12.162 28.799v409.616c0 11.094 4.055 20.693 12.16 28.797 8.105 8.107 17.707 12.164 28.807 12.164h184.314zM151.68 68.154c8.115 7.895 12.162 17.598 12.162 29.119 0 11.094-4.055 20.697-12.162 28.797-8.107 8.109-17.705 12.168-28.799 12.168-11.521 0-21.229-4.059-29.119-12.168-7.895-8.104-11.838-17.705-11.838-28.797 0-11.521 3.945-21.227 11.838-29.119 7.889-7.893 17.598-11.838 29.119-11.838 11.094 0 20.691 3.945 28.799 11.838z" />
<glyph unicode="&#xf108;" glyph-name="uniF108" d="M511.712 196.959c-103.137 0-187.047 83.91-187.047 187.049 0 103.137 83.91 187.047 187.047 187.047 103.139 0 187.049-83.91 187.049-187.047 0-103.139-83.91-187.049-187.049-187.049zM511.712 465.316c-44.834 0-81.309-36.475-81.309-81.309 0-44.836 36.475-81.311 81.309-81.311 44.836 0 81.311 36.475 81.311 81.311 0 44.834-36.475 81.309-81.311 81.309zM1020.928 396.222c4.090-7.619 4.096-16.777 0.021-24.404-1.568-2.941-39.393-72.801-120.984-142.863-75.258-64.629-203.654-141.67-387.96-141.67s-312.708 77.041-387.964 141.666c-81.594 70.070-119.42 139.924-120.988 142.865-4.074 7.629-4.068 16.787 0.021 24.406 1.576 2.941 39.535 72.779 121.189 142.832 75.328 64.623 203.742 141.66 387.742 141.66 183.998 0 312.41-77.037 387.736-141.66 81.652-70.057 119.611-139.895 121.188-142.832zM511.712 622.772c-131.656 0-238.764-107.109-238.764-238.764s107.107-238.766 238.764-238.766 238.766 107.107 238.766 238.766c0 131.656-107.109 238.764-238.766 238.764z" />
</font></defs></svg>